{
    "default": {
        "feature_motor_enable": false,
        "feature_aps_enable": true,
        "feature_auth_enable": true,
        "feature_cts_enable": true,
        "feature_3a_enable": true,
        "feature_evication_enable": true,
        "feature_resolution_enable": true,
        "feature_government_enalbe": true,
        "feature_sound_enable": true,
        "feature_flash_enable": true,
        "feature_fps_enable": true,
        "feature_rio_enable": true,
        "feature_preempt_enable": true,
        "isSkipfusion": true,
        "needlimitSizeForSurface": false,
        "limitPicture": false,
        "up_motor_in_configure": [
            "com.eric.soft",
            "com.tencent.mobileqq",
            "vStudio.Android.Camera360",
            "com.qihoo.magic",
            "com.happyelements.AndroidClover.nearme.gamecenter",
            "com.qzone",
            "com.yek.android.uniqlo",
            "com.netease.l10.nearme.gamecenter",
            "com.zhonglian.diandian",
            "com.yunlian.wewe",
            "com.yongqianbao.credit",
            "com.shouji2345",
            "com.paraken.jipai",
            "com.szzc",
            "com.tencent.qqpim",
            "com.mykj.game.ddz",
            "com.wangling.alarmeye",
            "com.bankcomm.Bankcomm",
            "com.hd.fly.flashlight",
            "com.cmri.universalapp",
            "com.ss.android.eyeu",
            "com.tencent.tmgp.hlxq",
            "com.tencent.WBlog",
            "cn.opda.a.phonoalbumshoushou",
            "com.aisaosao.isaosao",
            "com.cqgk.clerk",
            "com.amii.plus",
            "com.game.juba",
            "com.happyelements.AndroidClover.www",
            "com.sloth.removelogo",
            "com.xvideostudio.videoeditor",
            "com.controlcenter.inotifyx.notificationosx",
            "cn.ecook",
            "com.eybond.smartclient",
            "com.newland.mbop",
            "com.kcwangluo",
            "com.kh.phonelive",
            "com.ict.fcc",
            "com.forward.eip",
            "com.ahzs.ruanyou",
            "com.beihai365.Job365",
            "com.facishare.fs",
            "com.sharetimes.miliao",
            "com.woyinqianbao.zhifu.fx",
            "com.huamaitel.yunding",
            "com.hunan",
            "com.kdige.www",
            "com.scities.user",
            "com.godimage.knockout.free.cn",
            "com.ccclubs.changan",
            "cn.zuofanping",
            "com.gxrcw.activity",
            "cn.trackview.shentan",
            "com.cateater.stopmotionstudio",
            "cn.estronger.bike",
            "com.sn.vhome",
            "com.mayt.ai.idcardrecognition",
            "com.ss.android.ugc.aweme",
            "com.taichuan.anfu",
            "com.gywjw.chsapp",
            "com.cy.cyd",
            "com.ludashi.benchmarkpro",
            "cn.com.smartbi",
            "com.livecom",
            "com.sdjd.credit",
            "net.gemeite.smartcommunity",
            "com.jimu.adas",
            "com.sendtion.timenote",
            "com.uxin.live.assistant",
            "cn.ecookmeishi",
            "com.taichuan.cocmuh",
            "com.feinno.digitallife",
            "cn.ecookzuocaiba",
            "com.view.asim",
            "com.newsmy.temp",
            "com.tencent.tmgp.jjbycjb",
            "com.ytdinfo.keephealth",
            "com.nxz.nxz2017",
            "com.speedbooster.optimizer",
            "com.videomaker.editor.slideshow",
            "com.fbank.mobile",
            "com.careate.qyi",
            "com.anyisheng.doctoran",
            "com.colorphone.smooth.dialer",
            "com.yibaofu.oemtwo",
            "com.yy.android.tutor.student",
            "com.mfxskd",
            "com.feiin.wldh",
            "com.li.videoapplication",
            "com.fmcc.video",
            "com.cmri.chiNAmobile",
            "com.pp.TimelyLoan",
            "com.sinolife.app",
            "com.carelinker.pharmacy.v2",
            "com.meetstudio.app.Zither",
            "com.ak.zanjiahealth",
            "com.fourcall.wldh",
            "com.lianjia.alliance",
            "com.mengsiben.game.ddz.nearme.gamecenter",
            "com.boxfish.stu",
            "cn.vcinema.cinema",
            "com.kascend.chushou.lu",
            "com.pxkjformal.parallelcampus",
            "com.yaloe.newclient_8647",
            "cn.com.jmw.m",
            "com.derekr.AngleCam",
            "com.happyelements.AndroidClover.mob",
            "flar2.devcheck",
            "com.tencent.mtt",
            "com.wondertek.miguaikan",
            "air.com.empiregames.fungirlgames",
            "cn.net.cyberway",
            "net.cybrook.trackview",
            "com.fingerchat.hulian",
            "com.soufun.app",
            "com.kiloo.subwaysurf",
            "com.banshenghuo.mobile",
            "com.cmcm.live",
            "sg.bigo.live",
            "cn.ecookthree",
            "com.yealink.videophone",
            "com.kbridge.communityowners",
            "com.kkgames.MeiRenYuGongZhuDeHunLi",
            "my.PCamera",
            "cn.trackview.findphone",
            "com.linecorp.b612.android",
            "com.exutech.chacha",
            "com.tencent.ttpic",
            "com.jiochat.jiochatapp",
            "com.leo.appmaster",
            "com.camera.beautycam",
            "com.neptune.camera",
            "kr.drct.dsanapps",
            "com.MariiaKovalchuk.lesbianvideochatdating",
            "com.celcom.yoodo",
            "com.wecut.vapor",
            "com.vaultmicro.camerafi.live",
            "com.camera.gistacanon2",
            "org.potato.messenger",
            "video.chat.girls.boys.friends",
            "com.zenaapps.backgroundvideorecorder",
            "com.olx.southasia",
            "ar.com.moula.zoomcamera",
            "com.ganji.android",
            "com.myfrustum.rinpoche",
            "cn.com.gtcom.ydt",
            "com.sdjx.zhwy",
            "org.xinkb.blackboard.android",
            "com.jkx5da.client",
            "com.foodbus.dianzhuang",
            "com.dianping.v1",
            "com.gzlx.eduparent",
            "com.joinbanker.treasure",
            "com.yunxuetang.huihui",
            "com.txt.picc",
            "com.kuaibao.kuaidi",
            "us.pinguo.selfie",
            "com.kxloye.www.loye",
            "com.jianhai.health.activiy",
            "air.tv.douyu.android",
            "com.fotoable.fotobeauty",
            "com.tencent.qqlivebroadcast",
            "com.duowan.mobile",
            "com.snapchat.android",
            "com.hayl.smartvillage",
            "com.videofx",
            "com.google.android.apps.fireball",
            "com.theronrogers.vaultyfree",
            "com.dwd.rider",
            "air.com.gongfubb.wksz",
            "com.tencent.mobileqq",
            "com.sn.camera",
            "com.haier.rrs.driver",
            "com.focustech.xyz",
            "com.nahaowan.posepaipai",
            "com.mifeng.ui",
            "com.yitong.gansu.mobilebank",
            "com.douxim.frontbackflashnotification",
            "com.instagram.android"
        ],
        "limit_3rd_app_size": [
            "com.mt.mtxx.mtxx.sub.preview",
            "com.benqu.wuta.sub.preview",
            "com.huajiao.camera.sub.preview",
            "com.tencent.funcam.sub.preview",
            "com.mt.mtxx.mtxx.main.preview",
            "com.benqu.wuta.main.preview",
            "com.huajiao.camera.main.preview",
            "com.gorgeous.lite.main.preview",
            "com.meitu.meiyancamera.main.preview",
            "com.meitu.wheecam.main.preview",
            "com.huajiao.camera.sub.Texture"
        ],
        "limit_3rd_app_size_byLevel": [
            "autotest.oplus.com.simulatedlivebroadcast.level1",
            "com.fingogroup.fingo.level1",
            "com.rapido.rider.level1"
        ],
        "skip_rus_check_list": [
            "android.camera.cts",
            "com.android.cts.verifier",
            "android",
            "com.oplus.engineercamera"
        ],
        "disable_camera_shutter_sound_app_list": [
            "com.facebook.orca",
            "com.instagram.android",
            "com.facebook.katana"
        ],
        "defaultMaxPreviewWidth": 3168,
        "defaultMaxPreviewHeight": 3168,
        "previewSizeForAPI1Width": 1920,
        "previewSizeForAPI1Height": 1080,
        "maxPreviewWidthForAPI2cameraId0": 2400,
        "maxPreviewHeightForAPI2cameraId0": 1080,
        "maxPreviewWidthForAPI2cameraId1": 1920,
        "maxPreviewHeightForAPI2cameraId1": 1080,
        "resolutionFilterForNotAddSizeAPI1": [
            "4624x3468",
            "4624x2608",
            "4624x2080",
            "4160x3120",
            "4608x3456",
            "4608x2592",
            "4608x2080",
            "4096x1834",
            "4000x1790",
            "3280x2464",
            "3264x2448",
            "3264x1840",
            "3264x1472",
            "3200x2400",
            "2592x1944",
            "2448x2448",
            "2304x1728",
        ],
        "limitSizeListForCts": [
            4624,
            3468,
            4160,
            3120,
            4080,
            3072,
            4000,
            3000,
            3000,
            3000,
            3264,
            2448,
            2880,
            2160,
            2592,
            1944,
            3280,
            2464,
            2560,
            1440,
            2328,
            1748,
            2304,
            1728,
            2160,
            1080,
            1920,
            1080,
            1600,
            1200,
            1680,
            720,
            1440,
            1080,
            1280,
            960,
            1280,
            720,
            1080,
            1080,
            640,
            640,
            720,
            480,
            640,
            480,
            352,
            288,
            320,
            240,
            176,
            144,
            0,
            0
        ],
        "limitThumbnailSizeListForCts": [
            0,
            0,
            176,
            144,
            213,
            160,
            240,
            144,
            256,
            144,
            240,
            160,
            256,
            154,
            246,
            184,
            250,
            188,
            352,
            160,
            240,
            240,
            400,
            180,
            320,
            240,
            375,
            282
        ]
    },
    "org.codeaurora.ims": {
        "isFreeDomEvictionPackge": true
    },
    "android": {
        "isFreeDomEvictionPackge": true
    },
    "com.tencent.mm": {
        "app_enable_rio": true,
        "previewSizeForAPI1Width": 1920,
        "previewSizeForAPI1Height": 1080,
        "maxPreviewWidthForAPI2cameraId0": 1280,
        "maxPreviewHeightForAPI2cameraId0": 720,
        "maxPreviewWidthForAPI2cameraId1": 1280,
        "maxPreviewHeightForAPI2cameraId1": 720,
    },
    "com.tencent.zebra": {
        "previewSizeForAPI1Width": 1920,
        "previewSizeForAPI1Height": 1080
    },
    "com.marykay.vmo.my": {
        "maxWidthFilterForNotAddSizeAPI1": 1280,
        "maxHeightFilterForNotAddSizeAPI1": 720,
    },
    "net.one97.paytm": {
        "maxWidthFilterForNotAddSizeAPI1": 1600,
        "maxHeightFilterForNotAddSizeAPI1": 720,
        "maxPreviewWidthForAPI2cameraId0": 1600,
        "maxPreviewHeightForAPI2cameraId0": 720,
        "maxPreviewWidthForAPI2cameraId1": 1600,
        "maxPreviewHeightForAPI2cameraId1": 720,
    },
    "im.thebot.messenger": {
        "previewSizeForAPI1Width": 1920,
        "previewSizeForAPI1Height": 1080,
        "needLimitFpsForAPI1": true
    },
    "com.alibaba.android.rimet": {
        "previewSizeForAPI1Width": 1920,
        "previewSizeForAPI1Height": 1080
    },
     "activity.assure.js.zjspersonnel.jsv3personnel": {
        "previewSizeForAPI1Width": 1920,
        "previewSizeForAPI1Height": 1080
    },
    "com.zing.zalo": {
        "previewSizeForAPI1Width": 1920,
        "previewSizeForAPI1Height": 1080
    },
    "com.google.android.euicc": {
        "previewSizeForAPI1Width": 2304,
        "previewSizeForAPI1Height": 1728
    },
    "com.simpleapp.barcode.scanner": {
        "previewSizeForAPI1Width": 2160,
        "previewSizeForAPI1Height": 1080
    },
    "com.szlanyou.nissaniov": {
        "previewSizeForAPI1Width": 3216,
        "previewSizeForAPI1Height": 1440
    },
    "com.kufeng.hj.enjoy": {
        "previewSizeForAPI1Height": 1080
    },
    "com.tencent.mobileqq": {
        "app_enable_rio": true,
        "maxWidthFilterForNotAddSizeAPI1": 1600,
        "maxHeightFilterForNotAddSizeAPI1": 720,
        "maxPreviewWidthForAPI2cameraId0": 1600,
        "maxPreviewHeightForAPI2cameraId0": 720,
        "maxPreviewWidthForAPI2cameraId1": 1600,
        "maxPreviewHeightForAPI2cameraId1": 720,
    },
    "com.ss.android.ugc.aweme": {
        "app_enable_rio": true
    },
    "com.facebook.katana": {
        "app_enable_rio": true,
        "forceSetPreview": true,
        "previewWidthForAPI2": 1280,
        "previewHeightForAPI2": 720,
        "previewWidthForAPI2cameraId1": 1280,
        "previewHeightForAPI2cameraId1": 720,
    },
    "com.facebook.orca": {
        "app_enable_rio": true,
        "resolutionFilterForNotAddSizeAPI1": [
            "4608x3456",
            "4160x3120",
            "4160x2340",
            "4096x2160",
            "2688x1512",
            "2592x1944",
            "2592x1940",
            "2592x1458",
            "2592x1232",
            "2592x1196",
            "2560x1920"
        ],
        "previewSizeForAPI1Width": 1440,
        "previewSizeForAPI1Height": 1080
    },
    "com.whatsapp.w4b": {
        "app_enable_rio": true,
        "maxPreviewWidthForAPI2cameraId0": 1920,
        "maxPreviewHeightForAPI2cameraId0": 1080,
        "maxPreviewWidthForAPI2cameraId1": 1920,
        "maxPreviewHeightForAPI2cameraId1": 1080,
    },
    "com.instagram.android": {
        "app_enable_rio": true,
        "feature_preempt_enable": false,
        "maxPreviewWidthForAPI2cameraId1": 1600,
        "maxPreviewHeightForAPI2cameraId1": 720,
        "maxPreviewWidthForAPI2cameraId0": 1600,
        "maxPreviewHeightForAPI2cameraId0": 720,
    },
    "com.ss.android.ugc.trill": {
        "app_enable_rio": true
    },
    "com.oplus.engineercamera": {
        "resolutionFilterForNotAddSizeAPI1": [
            "4608x3456",
            "4160x3120",
            "4160x2340",
            "4096x2160",
            "2688x1512",
            "2592x1944",
            "2592x1940",
            "2592x1458",
            "2592x1232",
            "2592x1196",
            "2592x1920"
        ]
    },
    "com.manboker.headportrait": {
        "maxWidthFilterForNotAddSizeAPI1": 1280,
        "maxHeightFilterForNotAddSizeAPI1": 720,
        "maxPreviewWidthForAPI2cameraId0": 1280,
        "maxPreviewHeightForAPI2cameraId0": 720,
        "maxPreviewWidthForAPI2cameraId1": 1280,
        "maxPreviewHeightForAPI2cameraId1": 720,
    },
    "com.twitter.android": {
        "maxWidthFilterForNotAddSizeAPI1": 1280,
        "maxHeightFilterForNotAddSizeAPI1": 720,
        "maxRatioFilterForNotAddSizeAPI1": 177,
        "minRatioFilterForNotAddSizeAPI1": 133,
        "needLimitFpsForAPI1": true
    },
    "com.whatsapp": {
        "feature_resolution_enable": true,
        "feature_preempt_enable": false,
        "forceSetPreview": true,
        "previewWidthForAPI2": 1280,
        "previewHeightForAPI2": 720,
    },
    "com.tencent.wework": {
        "needLimitFpsForAPI1": false
    },
    "com.skype.raider": {
        "needLimitFpsForAPI1": true,
        "useCtsSize":true,
        "maxWidthFilterForNotAddSizeAPI1": 1280,
        "maxHeightFilterForNotAddSizeAPI1": 720,
        "maxPreviewWidthForAPI2cameraId0": 1920,
        "maxPreviewHeightForAPI2cameraId0": 1080,
        "maxPreviewWidthForAPI2cameraId1": 1920,
        "maxPreviewHeightForAPI2cameraId1": 1080,
    },
    "com.vkontakte.android": {
        "needLimitFpsForAPI1": true
    },
    "jp.naver.linecamera.android": {
        "needLimitFpsForAPI1": true,
        "maxWidthFilterForNotAddSizeAPI1": 1280,
        "maxHeightFilterForNotAddSizeAPI1": 1280,
    },
    "com.blink.academy.nomopro": {
        "needLimitFpsForAPI1": true
    },
    "com.microsoft.office.excel": {
        "needLimitFpsForAPI1": true
    },
    "com.eg.android.AlipayGphone": {
        "needLimitFpsForAPI1": true
    },
    "com.smile.gifmaker": {
        "app_enable_rio": true,
        "adjustInvalidFpsForAPI1": true,
        "maxWidthFilterForNotAddSizeAPI1": 1600,
        "maxHeightFilterForNotAddSizeAPI1": 720,
        "maxPreviewWidthForAPI2cameraId0": 1600,
        "maxPreviewHeightForAPI2cameraId0": 720,
        "maxPreviewWidthForAPI2cameraId1": 1600,
        "maxPreviewHeightForAPI2cameraId1": 720,
    },
    "com.taobao.taobao": {
        "checkToAddPreviewCallbackForAPI1": true
    },
    "com.example.anchortooldemo": {
        "checkToAddPreviewCallbackForAPI1": true
    },
    "android.camera.cts": {
        "resolutionFilterForNotAddSizeAPI1": [
            "4608x3456",
            "4160x3120",
            "4160x2340",
            "4096x2304",
            "4096x2160",
            "4096x1834",
            "4000x2250",
            "4000x1790",
            "3840x1644",
            "3456x2592",
            "3328x2496",
            "3216x1440",
            "2752x2064",
            "2688x1512",
            "2592x1940",
            "2592x1458",
            "2592x1232",
            "2592x1196",
            "2560x1920",
            "2520x1080",
            "2412x1080",
            "2376x1080",
            "2304x1728",
            "2304x1296",
            "1920x1440",
            "1920x864",
            "1920x860",
            "1608x720",
            "1600x800",
            "1600x720",
            "1206x540",
            "1204x768",
            "864x480",
            "804x360"
        ]
    },
    "autotest.oppo.com.simulatedlivebroadcast": {
        "limitPicture":true,
        "maxPreviewWidthForAPI2cameraId1": 3264,
        "maxPreviewHeightForAPI2cameraId1": 2448,
        "maxPreviewWidthForAPI2cameraId0": 4160,
        "maxPreviewHeightForAPI2cameraId0": 2448,
        "previewSizeForAPI1Width": 2304,
        "previewSizeForAPI1Height": 1728,
        "maxWidthFilterForNotAddSizeAPI1": 4160,
        "maxHeightFilterForNotAddSizeAPI1": 3072,
        "resolutionFilterForNotAddSizeAPI1": [
            "2592x1944"
        ]
    },
    "com.ehviewer.pixiv": {
        "resolutionFilterForNotAddSizeAPI1": [
            "1920x1440",
            "2304x1296",
            "2560x1440",
            "2304x1728",
            "2328x1746",
            "2752x1548",
            "3216x1440",
            "2592x1944",
            "2752x2064",
            "3264x1836",
            "3840x1644",
            "4000x1790",
            "4096x1834",
            "3200x2400",
            "3264x2448",
            "3280x2464",
            "3840x2160"
        ]
    },
    "com.google.android.apps.messaging" : {
        "maxWidthFilterForNotAddSizeAPI1": 1280,
        "maxHeightFilterForNotAddSizeAPI1": 1280,
    },
    "com.meitu.meipaimv" :  {
        "maxWidthFilterForNotAddSizeAPI1": 1600,
        "maxHeightFilterForNotAddSizeAPI1": 720,
    },
    "com.huajiao.camera" :  {
        "maxWidthFilterForNotAddSizeAPI1": 1600,
        "maxHeightFilterForNotAddSizeAPI1": 720,
        "maxPreviewWidthForAPI2cameraId0": 1600,
        "maxPreviewHeightForAPI2cameraId0": 720,
        "maxPreviewWidthForAPI2cameraId1": 1600,
        "maxPreviewHeightForAPI2cameraId1": 720,
    },
    "com.linecorp.b612.android" :  {
        "maxWidthFilterForNotAddSizeAPI1": 1600,
        "maxHeightFilterForNotAddSizeAPI1": 720,
        "maxPreviewWidthForAPI2cameraId1": 1600,
        "maxPreviewHeightForAPI2cameraId1": 720,
        "maxPreviewWidthForAPI2cameraId0": 1600,
        "maxPreviewHeightForAPI2cameraId0": 720,
    },
    "com.hlg.daydaytobusiness" :  {
        "maxWidthFilterForNotAddSizeAPI1": 1600,
        "maxHeightFilterForNotAddSizeAPI1": 720,
        "maxPreviewWidthForAPI2cameraId1": 1600,
        "maxPreviewHeightForAPI2cameraId1": 720,
        "maxPreviewWidthForAPI2cameraId0": 1600,
        "maxPreviewHeightForAPI2cameraId0": 720,
    },
    "com.lemon.faceu.oversea" :  {
        "maxWidthFilterForNotAddSizeAPI1": 1600,
        "maxHeightFilterForNotAddSizeAPI1": 720,
        "maxPreviewWidthForAPI2cameraId1": 1600,
        "maxPreviewHeightForAPI2cameraId1": 720,
        "maxPreviewWidthForAPI2cameraId0": 1600,
        "maxPreviewHeightForAPI2cameraId0": 720,
    },
    "com.campmobile.snowcamera" :  {
        "maxWidthFilterForNotAddSizeAPI1": 1600,
        "maxHeightFilterForNotAddSizeAPI1": 720,
    },
    "com.benqu.wuta" :  {
        "maxWidthFilterForNotAddSizeAPI1": 1600,
        "maxHeightFilterForNotAddSizeAPI1": 720,
        "maxPreviewWidthForAPI2": 1600,
        "maxPreviewHeightForAPI2": 720,
    },
    "com.xvideostudio.videoeditor" :  {
        "maxWidthFilterForNotAddSizeAPI1": 1600,
        "maxHeightFilterForNotAddSizeAPI1": 720,
        "maxPreviewWidthForAPI2cameraId0": 1600,
        "maxPreviewHeightForAPI2cameraId0": 720,
        "maxPreviewWidthForAPI2cameraId1": 1600,
        "maxPreviewHeightForAPI2cameraId1": 720,
    },
    "com.meitu.wheecam" :  {
        "maxWidthFilterForNotAddSizeAPI1": 1600,
        "maxHeightFilterForNotAddSizeAPI1": 720,
        "maxPreviewWidthForAPI2cameraId0": 1600,
        "maxPreviewHeightForAPI2cameraId0": 720,
        "maxPreviewWidthForAPI2cameraId1": 1600,
        "maxPreviewHeightForAPI2cameraId1": 720,
    },
    "vStudio.Android.Camera360" :  {
        "previewSizeForAPI1Width": 1440,
        "previewSizeForAPI1Height": 1080,
    },
    "jp.naver.line.android" :  {
        "maxWidthFilterForNotAddSizeAPI1": 1280,
        "maxHeightFilterForNotAddSizeAPI1": 720,
    },
    "com.kwai.m2u" :  {
        "maxWidthFilterForNotAddSizeAPI1": 1600,
        "maxHeightFilterForNotAddSizeAPI1": 720,
    },
    "cn.easyar.sightplus" :  {
        "maxWidthFilterForNotAddSizeAPI1": 1600,
        "maxHeightFilterForNotAddSizeAPI1": 720,
    },
    "com.commsource.beautyplus" :  {
        "maxWidthFilterForNotAddSizeAPI1": 1600,
        "maxHeightFilterForNotAddSizeAPI1": 720,
    },
    "com.syxjappms.www" :  {
        "maxWidthFilterForNotAddSizeAPI1": 1600,
        "maxHeightFilterForNotAddSizeAPI1": 720,
    },
    "com.netease.idv.googleplay" :  {
        "maxWidthFilterForNotAddSizeAPI1": 1600,
        "maxHeightFilterForNotAddSizeAPI1": 720,
    },
    "com.youdao.dict" :  {
        "maxWidthFilterForNotAddSizeAPI1": 1600,
        "maxHeightFilterForNotAddSizeAPI1": 720,
    },
    "com.netease.mkey" :  {
        "maxWidthFilterForNotAddSizeAPI1": 1600,
        "maxHeightFilterForNotAddSizeAPI1": 720,
    },
    "com.google.android.wearable.app" :  {
        "maxWidthFilterForNotAddSizeAPI1": 1600,
        "maxHeightFilterForNotAddSizeAPI1": 720,
    },
    "com.ryzenrise.vaporcamera" :  {
        "maxWidthFilterForNotAddSizeAPI1": 1600,
        "maxHeightFilterForNotAddSizeAPI1": 720,
    },
    "com.appbox.photomath" :  {
        "maxWidthFilterForNotAddSizeAPI1": 1600,
        "maxHeightFilterForNotAddSizeAPI1": 720,
    },
    "com.meishe.videoshow" :  {
        "maxWidthFilterForNotAddSizeAPI1": 1600,
        "maxHeightFilterForNotAddSizeAPI1": 720,
    },
    "com.pinterest" :  {
        "maxWidthFilterForNotAddSizeAPI1": 1520,
        "maxHeightFilterForNotAddSizeAPI1": 720,
    },
    "com.meitu.meiyancamera" :  {
        "maxWidthFilterForNotAddSizeAPI1": 1600,
        "maxHeightFilterForNotAddSizeAPI1": 1200,
        "maxPreviewWidthForAPI2cameraId0": 1920,
        "maxPreviewHeightForAPI2cameraId0": 1080,
        "maxPreviewWidthForAPI2cameraId1": 1600,
        "maxPreviewHeightForAPI2cameraId1": 720,
    },
    "com.mt.mtxx.mtxx" :  {
        "maxWidthFilterForNotAddSizeAPI1": 1280,
        "maxHeightFilterForNotAddSizeAPI1": 1280,
        "maxPreviewWidthForAPI2cameraId0": 1600,
        "maxPreviewHeightForAPI2cameraId0": 720,
        "maxPreviewWidthForAPI2cameraId1": 1600,
        "maxPreviewHeightForAPI2cameraId1": 720,
    },
    "com.derekr.AngleCam" :  {
        "maxWidthFilterForNotAddSizeAPI1": 1280,
        "maxHeightFilterForNotAddSizeAPI1": 1280,
    },
    "com.cyberlink.youperfect" :  {
        "maxWidthFilterForNotAddSizeAPI1": 1280,
        "maxHeightFilterForNotAddSizeAPI1": 1280,
    },
    "com.xvideostudio.vcamera" :  {
        "maxWidthFilterForNotAddSizeAPI1": 1280,
        "maxHeightFilterForNotAddSizeAPI1": 1280,
    },
    "com.marykay.vmo.tw" :  {
        "maxWidthFilterForNotAddSizeAPI1": 1280,
        "maxHeightFilterForNotAddSizeAPI1": 1280,
    },
    "com.beauty.camera.youcam.makeup.photo.editor.plus" :  {
        "maxWidthFilterForNotAddSizeAPI1": 1280,
        "maxHeightFilterForNotAddSizeAPI1": 1280,
    },
    "kr.co.manhole.hujicam" :  {
        "maxWidthFilterForNotAddSizeAPI1": 1280,
        "maxHeightFilterForNotAddSizeAPI1": 1280,
    },
    "cn.wps.moffice_eng" :  {
        "maxWidthFilterForNotAddSizeAPI1": 1440,
        "maxHeightFilterForNotAddSizeAPI1": 1080,
    },
    "com.leqi.IDPhotoVerify" :  {
        "maxWidthFilterForNotAddSizeAPI1": 1440,
        "maxHeightFilterForNotAddSizeAPI1": 1080,
    },
    "com.leqi.institute" :  {
        "maxWidthFilterForNotAddSizeAPI1": 1440,
        "maxHeightFilterForNotAddSizeAPI1": 1080,
    },
    "com.meitu.makeup" :  {
        "maxWidthFilterForNotAddSizeAPI1": 1440,
        "maxHeightFilterForNotAddSizeAPI1": 1080,
    },
    "us.pinguo.idcamera" :  {
        "maxWidthFilterForNotAddSizeAPI1": 1440,
        "maxHeightFilterForNotAddSizeAPI1": 1080,
    },
    "my.PCamera" :  {
        "maxWidthFilterForNotAddSizeAPI1": 1440,
        "maxHeightFilterForNotAddSizeAPI1": 1080,
    },
    "com.xhey.xcamera" :  {
        "maxWidthFilterForNotAddSizeAPI1": 1440,
        "maxHeightFilterForNotAddSizeAPI1": 1080,
    },
    "com.xingin.xhs" :  {
        "maxWidthFilterForNotAddSizeAPI1": 1440,
        "maxHeightFilterForNotAddSizeAPI1": 1080,
    },
    "vendor.debug.camera.prjname" :  {
        "maxWidthFilterForNotAddSizeAPI1": 1440,
        "maxHeightFilterForNotAddSizeAPI1": 1080,
    },
    "com.magicv.airbrush" :  {
        "maxWidthFilterForNotAddSizeAPI1": 1440,
        "maxHeightFilterForNotAddSizeAPI1": 1080,
    },
    "io.faceapp" :  {
        "maxWidthFilterForNotAddSizeAPI1": 1440,
        "maxHeightFilterForNotAddSizeAPI1": 1080,
    },
    "com.jellybus.rookie" :  {
        "maxWidthFilterForNotAddSizeAPI1": 1440,
        "maxHeightFilterForNotAddSizeAPI1": 1080,
    },
    "com.iqiyi.i18n" :  {
        "previewSizeForAPI1Width": 1600,
        "previewSizeForAPI1Height": 720,
    },
    "com.UCMobile.intl" :  {
        "maxWidthFilterForNotAddSizeAPI1": 1920,
        "maxHeightFilterForNotAddSizeAPI1": 1080,
        "maxPreviewWidthForAPI2cameraId0": 1920,
        "maxPreviewHeightForAPI2cameraId0": 1080,
        "maxPreviewWidthForAPI2cameraId1": 1920,
        "maxPreviewHeightForAPI2cameraId1": 1080,
    },
    "android.camera.cts" :  {
        "limit_activity": [
            "android.hardware.camera2.cts.Camera2SurfaceViewCtsActivity"
        ],
        "maxPreviewWidthForAPI2cameraId0": 1920,
        "maxPreviewHeightForAPI2cameraId0": 1080,
        "maxPreviewWidthForAPI2cameraId1": 1920,
        "maxPreviewHeightForAPI2cameraId1": 1080,
    },
    "com.dada.mobile.android" :  {
        "maxWidthFilterForNotAddSizeAPI1": 1920,
        "maxHeightFilterForNotAddSizeAPI1": 1080,
    },
    "com.uc.browser.en" :  {
        "maxWidthFilterForNotAddSizeAPI1": 1920,
        "maxHeightFilterForNotAddSizeAPI1": 1080,
        "maxPreviewWidthForAPI2cameraId0": 1920,
        "maxPreviewHeightForAPI2cameraId0": 1080,
        "maxPreviewWidthForAPI2cameraId1": 1920,
        "maxPreviewHeightForAPI2cameraId1": 1080,
    },
    "com.imo.android.imoim" :  {
        "maxWidthFilterForNotAddSizeAPI1": 1920,
        "maxHeightFilterForNotAddSizeAPI1": 1080,
        "maxPreviewWidthForAPI2cameraId0": 1920,
        "maxPreviewHeightForAPI2cameraId0": 1080,
        "maxPreviewWidthForAPI2cameraId1": 1920,
        "maxPreviewHeightForAPI2cameraId1": 1080,
    },
    "com.imo.android.imoimhd" :  {
        "maxWidthFilterForNotAddSizeAPI1": 1920,
        "maxHeightFilterForNotAddSizeAPI1": 1080,
        "maxPreviewWidthForAPI2cameraId0": 1920,
        "maxPreviewHeightForAPI2cameraId0": 1080,
        "maxPreviewWidthForAPI2cameraId1": 1920,
        "maxPreviewHeightForAPI2cameraId1": 1080,
    },
    "com.flavionet.android.camera.lite" :  {
        "maxPreviewWidthForAPI2cameraId0": 1440,
        "maxPreviewHeightForAPI2cameraId0": 1080,
        "maxPreviewWidthForAPI2cameraId1": 1440,
        "maxPreviewHeightForAPI2cameraId1": 1080,
    },
    "com.vimeo.android.videoapp" :  {
        "maxPreviewWidthForAPI2cameraId0": 1920,
        "maxPreviewHeightForAPI2cameraId0": 1080,
        "maxPreviewWidthForAPI2cameraId1": 1920,
        "maxPreviewHeightForAPI2cameraId1": 1080,
    },
    "com.lemon.faceu" :  {
        "maxPreviewWidthForAPI2cameraId0": 1600,
        "maxPreviewHeightForAPI2cameraId0": 720,
        "maxPreviewWidthForAPI2cameraId1": 1600,
        "maxPreviewHeightForAPI2cameraId1": 720,
    },
    "com.jiuyan.infashion" :  {
        "maxPreviewWidthForAPI2cameraId0": 1600,
        "maxPreviewHeightForAPI2cameraId0": 720,
        "maxPreviewWidthForAPI2cameraId1": 1600,
        "maxPreviewHeightForAPI2cameraId1": 720,
    },
    "cn.gogpay.dcb" :  {
        "maxPreviewWidthForAPI2cameraId0": 1600,
        "maxPreviewHeightForAPI2cameraId0": 720,
        "maxPreviewWidthForAPI2cameraId1": 1600,
        "maxPreviewHeightForAPI2cameraId1": 720,
    },
    "com.meitu.meiyancamera_split_0" :  {
        "maxPreviewWidthForAPI2cameraId0": 1600,
        "maxPreviewHeightForAPI2cameraId0": 720,
        "maxPreviewWidthForAPI2cameraId1": 1600,
        "maxPreviewHeightForAPI2cameraId1": 720,
    },
    "com.meitu.boxxcam" :  {
        "maxPreviewWidthForAPI2cameraId0": 1600,
        "maxPreviewHeightForAPI2cameraId0": 720,
        "maxPreviewWidthForAPI2cameraId1": 1600,
        "maxPreviewHeightForAPI2cameraId1": 720,
    },
    "tv.twitch.android.app" :  {
        "maxPreviewWidthForAPI2cameraId0": 1600,
        "maxPreviewHeightForAPI2cameraId0": 720,
        "maxPreviewWidthForAPI2cameraId1": 1600,
        "maxPreviewHeightForAPI2cameraId1": 720,
    },
    "in.mohalla.sharechat" :  {
        "maxPreviewWidthForAPI2cameraId0": 1600,
        "maxPreviewHeightForAPI2cameraId0": 720,
        "maxPreviewWidthForAPI2cameraId1": 1600,
        "maxPreviewHeightForAPI2cameraId1": 720,
    },
    "com.tencent.mobileqq.olympic.activity.ScanTorchActivity" : {
        "maxFps":24,
    },
    "air.byss.mobi.instaplacefree" :  {
        "maxWidthFilterForNotAddSizeAPI1": 1280,
        "maxHeightFilterForNotAddSizeAPI1": 720,
    },
    "com.meitu.beautyplusme" : {
        "maxWidthFilterForNotAddSizeAPI1": 1600,
        "maxHeightFilterForNotAddSizeAPI1": 720,
    },
    "pdf.scanner.pdfscanner.scannerapp.scantopdf": {
        "maxWidthFilterForNotAddSizeAPI1": 1600,
        "maxHeightFilterForNotAddSizeAPI1": 720,
    },
}
