{
    "216C1":{
        "platform_config":{
            "sensor_arch":"qcom_sensor_see"
        },
        "sensor_config":{
            "android.sensor.accelerometer":{
                "type":1,
                "support":"true",
                "module":"sc7a20|bma4xy",
                "sc7a20":{
                    "mode":"batch_cali|factory_cali",
                    "offset_x": 0.0,
                    "offset_y": 0.0,
                    "offset_z": 0.0
                },
                "bma4xy":{
                    "mode":"batch_cali|factory_cali",
                    "offset_x": 0.0,
                    "offset_y": 0.0,
                    "offset_z": 0.0
                }
            },
            "android.sensor.magnetic_field":{
                "type":2,
                "support":"true",
                "module":"mxg4300|ak0991x",
                "mxg4300":{
                    "mode":"batch_cali"
                },
                "ak0991x":{
                    "mode":"batch_cali"
                }
            },
            "android.sensor.gyroscope":{
                "type": 4,
                "support": "true",
                "module": "module_ignore",
                "module_ignore": {
                    "mode": "virtual_sensor"
                }
            },
            "android.sensor.light":{
                "type":5,
                "support":"true",
                "module":"mn78911|stk33502",
                "mn78911":{
                    "mode":"factory_cali|micro_gap",
                    "cali_para": 1000
                },
                "stk33502":{
                    "mode":"factory_cali|micro_gap",
                    "cali_para": 1000
                }
            },
            "android.sensor.proximity":{
                "type":8,
                "support":"true",
                "module":"mn78911|stk33502",
                "mn78911":{
                    "mode":"ignore_mean|micro_gap|factory_cali",
                    "delta_threshold":150,
                    "ps0_offset": 0,
                    "ps0_distance_delta": 110,
                    "ps1_offset": 0,
                    "ps1_distance_delta": 0
                },
                "stk33502":{
                    "mode":"ignore_mean|micro_gap|factory_cali",
                    "delta_threshold":150,
                    "ps0_offset": 0,
                    "ps0_distance_delta": 110,
                    "ps1_offset": 0,
                    "ps1_distance_delta": 0
                }
            },
            "android.sensor.step_counter":{
                "type":19,
                "support":"true",
                "module":"module_ignore",
                "module_ignore":{
                    "mode":"virtual_sensor"
                }
            },
            "qti.sensor.sensor_logger":{
                "type":33171024,
                "support":"true",
                "module":"module_ignore"
            }
        }
    }
}
